Text Mining with gutenbergr and tidytext
…
#> # A tibble: 2 × 8
#>   gutenberg_id title     author gutenberg_author_id language gutenberg_bookshelf
#>          <int> <chr>     <chr>                <int> <fct>    <chr>              
#> 1          105 Persuasi… Auste…                  68 en       Category: Novels/C…
#> 2        56582 The Gent… Gray,…               48927 en       Category: British …
#> # ℹ 2 more variables: rights <fct>, has_text <lgl>

We can see there are multiple works returned. 105 is
Persuasion:

persuasion <- gutenberg_download(105, meta_fields = "title")

persuasion

#> # A tibble: 8,357 × 3
#>    gutenberg_id text             title     
#>           <int> <chr>            <chr>     
#>  1          105 "Persuasion"     Persuasion
#>  2          105 ""               Persuasion
#>  3          105 ""               Persuasion
#>  4          105 "by Jane Austen" Persuasion
#>  5          105 ""               Persuasion
#>  6          105 "(1818)"         Persuasion
#>  7          105 ""               Persuasion
#>  8          105 ""               Persuasion
#>  9          105 ""               Persuasion
#> 10          105 ""               Persuasion
#> # ℹ 8,347 more rows
…
words <- persuasion |>
  unnest_tokens(word, text) |>
  anti_join(stop_words, by = "word")

Word Frequency Analysis

Tokenization makes it trivial to find the most frequent words in the
text:

word_counts <- words |>
  count(word, sort = TRUE)

word_counts

#> # A tibble: 5,384 × 2
#>    word          n
#>    <chr>     <int>
#>  1 anne        447
#>  2 captain     302
#>  3 elliot      254
#>  4 lady        214
#>  5 wentworth   191
#>  6 charles     155
#>  7 time        152
#>  8 sir         149
#>  9 miss        125
#> 10 walter      123
#> # ℹ 5,374 more rows
…
